<svg width="125" height="34" viewBox="0 0 125 34" fill="none" xmlns="http://www.w3.org/2000/svg">
<path d="M0.84 17.6C0.84 15.952 1.208 14.48 1.944 13.184C2.696 11.872 3.712 10.856 4.992 10.136C6.288 9.4 7.736 9.032 9.336 9.032C11.208 9.032 12.848 9.512 14.256 10.472C15.664 11.432 16.648 12.76 17.208 14.456H13.344C12.96 13.656 12.416 13.056 11.712 12.656C11.024 12.256 10.224 12.056 9.312 12.056C8.336 12.056 7.464 12.288 6.696 12.752C5.944 13.2 5.352 13.84 4.92 14.672C4.504 15.504 4.296 16.48 4.296 17.6C4.296 18.704 4.504 19.68 4.92 20.528C5.352 21.36 5.944 22.008 6.696 22.472C7.464 22.92 8.336 23.144 9.312 23.144C10.224 23.144 11.024 22.944 11.712 22.544C12.416 22.128 12.96 21.52 13.344 20.72H17.208C16.648 22.432 15.664 23.768 14.256 24.728C12.864 25.672 11.224 26.144 9.336 26.144C7.736 26.144 6.288 25.784 4.992 25.064C3.712 24.328 2.696 23.312 1.944 22.016C1.208 20.72 0.84 19.248 0.84 17.6ZM24.6379 8.24V26H21.2779V8.24H24.6379ZM28.2936 19.304C28.2936 17.96 28.5576 16.768 29.0856 15.728C29.6296 14.688 30.3576 13.888 31.2696 13.328C32.1976 12.768 33.2296 12.488 34.3656 12.488C35.3576 12.488 36.2216 12.688 36.9576 13.088C37.7096 13.488 38.3096 13.992 38.7576 14.6V12.704H42.1416V26H38.7576V24.056C38.3256 24.68 37.7256 25.2 36.9576 25.616C36.2056 26.016 35.3336 26.216 34.3416 26.216C33.2216 26.216 32.1976 25.928 31.2696 25.352C30.3576 24.776 29.6296 23.968 29.0856 22.928C28.5576 21.872 28.2936 20.664 28.2936 19.304ZM38.7576 19.352C38.7576 18.536 38.5976 17.84 38.2776 17.264C37.9576 16.672 37.5256 16.224 36.9816 15.92C36.4376 15.6 35.8536 15.44 35.2296 15.44C34.6056 15.44 34.0296 15.592 33.5016 15.896C32.9736 16.2 32.5416 16.648 32.2056 17.24C31.8856 17.816 31.7256 18.504 31.7256 19.304C31.7256 20.104 31.8856 20.808 32.2056 21.416C32.5416 22.008 32.9736 22.464 33.5016 22.784C34.0456 23.104 34.6216 23.264 35.2296 23.264C35.8536 23.264 36.4376 23.112 36.9816 22.808C37.5256 22.488 37.9576 22.04 38.2776 21.464C38.5976 20.872 38.7576 20.168 38.7576 19.352ZM49.9832 14.768C50.4152 14.064 50.9752 13.512 51.6632 13.112C52.3672 12.712 53.1672 12.512 54.0632 12.512V16.04H53.1752C52.1192 16.04 51.3192 16.288 50.7752 16.784C50.2472 17.28 49.9832 18.144 49.9832 19.376V26H46.6232V12.704H49.9832V14.768ZM70.2463 12.704L62.0143 32.288H58.4383L61.3183 25.664L55.9903 12.704H59.7583L63.1903 21.992L66.6703 12.704H70.2463ZM74.9616 11.12C74.3696 11.12 73.8736 10.936 73.4736 10.568C73.0896 10.184 72.8976 9.712 72.8976 9.152C72.8976 8.592 73.0896 8.128 73.4736 7.76C73.8736 7.376 74.3696 7.184 74.9616 7.184C75.5536 7.184 76.0416 7.376 76.4256 7.76C76.8256 8.128 77.0256 8.592 77.0256 9.152C77.0256 9.712 76.8256 10.184 76.4256 10.568C76.0416 10.936 75.5536 11.12 74.9616 11.12ZM76.6176 12.704V26H73.2576V12.704H76.6176ZM88.5052 12.512C90.0892 12.512 91.3692 13.016 92.3452 14.024C93.3212 15.016 93.8092 16.408 93.8092 18.2V26H90.4492V18.656C90.4492 17.6 90.1852 16.792 89.6572 16.232C89.1292 15.656 88.4092 15.368 87.4972 15.368C86.5692 15.368 85.8332 15.656 85.2892 16.232C84.7612 16.792 84.4972 17.6 84.4972 18.656V26H81.1372V12.704H84.4972V14.36C84.9452 13.784 85.5132 13.336 86.2012 13.016C86.9052 12.68 87.6732 12.512 88.5052 12.512ZM103.412 12.488C104.404 12.488 105.276 12.688 106.028 13.088C106.78 13.472 107.372 13.976 107.804 14.6V12.704H111.188V26.096C111.188 27.328 110.94 28.424 110.444 29.384C109.948 30.36 109.204 31.128 108.212 31.688C107.22 32.264 106.02 32.552 104.612 32.552C102.724 32.552 101.172 32.112 99.9564 31.232C98.7564 30.352 98.0764 29.152 97.9164 27.632H101.252C101.428 28.24 101.804 28.72 102.38 29.072C102.972 29.44 103.684 29.624 104.516 29.624C105.492 29.624 106.284 29.328 106.892 28.736C107.5 28.16 107.804 27.28 107.804 26.096V24.032C107.372 24.656 106.772 25.176 106.004 25.592C105.252 26.008 104.388 26.216 103.412 26.216C102.292 26.216 101.268 25.928 100.34 25.352C99.4124 24.776 98.6764 23.968 98.1324 22.928C97.6044 21.872 97.3404 20.664 97.3404 19.304C97.3404 17.96 97.6044 16.768 98.1324 15.728C98.6764 14.688 99.4044 13.888 100.316 13.328C101.244 12.768 102.276 12.488 103.412 12.488ZM107.804 19.352C107.804 18.536 107.644 17.84 107.324 17.264C107.004 16.672 106.572 16.224 106.028 15.92C105.484 15.6 104.9 15.44 104.276 15.44C103.652 15.44 103.076 15.592 102.548 15.896C102.02 16.2 101.588 16.648 101.252 17.24C100.932 17.816 100.772 18.504 100.772 19.304C100.772 20.104 100.932 20.808 101.252 21.416C101.588 22.008 102.02 22.464 102.548 22.784C103.092 23.104 103.668 23.264 104.276 23.264C104.9 23.264 105.484 23.112 106.028 22.808C106.572 22.488 107.004 22.04 107.324 21.464C107.644 20.872 107.804 20.168 107.804 19.352Z" fill="white"/>
<circle cx="119.5" cy="25.5" r="3.5" fill="#EFB41E"/>
</svg>
